{"paging":{
    "page":1,
    "total":2579,
    "page_size":20,
    "pages":129
},"loans":[
    {
        "id":391191,
        "name":"Kholod",
        "description":{
            "languages":["en"]
        },
        "status":"fundraising",
        "funded_amount":0,
        "basket_amount":0,
        "image":{
            "id":1004161,
            "template_id":1
        },
        "activity":"Clothing Sales",
        "sector":"Clothing",
        "use":"to purchase clothes for business purposes.",
        "location":{
            "country_code":"JO",
            "country":"Jordan",
            "town":"Al-Hashmi-Amman",
            "geo":{
                "level":"country",
                "pairs":"31 36",
                "type":"point"
            }
        },
        "partner_id":174,
        "posted_date":"2012-02-12T15:50:03Z",
        "planned_expiration_date":"2012-03-13T15:50:03Z",
        "loan_amount":725,
        "borrower_count":1
    },
    {
        "id":391193,
        "name":"Nofoz",
        "description":{
            "languages":["en"]
        },
        "status":"fundraising",
        "funded_amount":0,
        "basket_amount":0,
        "image":{
            "id":1004164,
            "template_id":1
        },
        "activity":"Tailoring",
        "sector":"Services",
        "use":"to purchase a new sewing machine ",
        "location":{
            "country_code":"JO",
            "country":"Jordan",
            "town":"Al-Hashmi-Amman",
            "geo":{
                "level":"country",
                "pairs":"31 36",
                "type":"point"
            }
        },
        "partner_id":174,
        "posted_date":"2012-02-12T15:50:03Z",
        "planned_expiration_date":"2012-03-13T15:50:03Z",
        "loan_amount":850,
        "borrower_count":1
    },
    {
        "id":391194,
        "name":"Neda'a",
        "description":{
            "languages":["en"]
        },
        "status":"fundraising",
        "funded_amount":0,
        "basket_amount":0,
        "image":{
            "id":1004166,
            "template_id":1
        },
        "activity":"Personal Housing Expenses",
        "sector":"Housing",
        "use":"to do maintenance on her house ",
        "location":{
            "country_code":"JO",
            "country":"Jordan",
            "town":"Al-Hashmi-Amman",
            "geo":{
                "level":"country",
                "pairs":"31 36",
                "type":"point"
            }
        },
        "partner_id":174,
        "posted_date":"2012-02-12T15:50:03Z",
        "planned_expiration_date":"2012-03-13T15:50:03Z",
        "loan_amount":725,
        "borrower_count":1
    },
    {
        "id":391186,
        "name":"Ali",
        "description":{
            "languages":["en"]
        },
        "status":"fundraising",
        "funded_amount":0,
        "basket_amount":0,
        "image":{
            "id":1004153,
            "template_id":1
        },
        "activity":"Tailoring",
        "sector":"Services",
        "use":"to purchase materials ( fabrics, thread, etc.)",
        "location":{
            "country_code":"JO",
            "country":"Jordan",
            "town":"Marka,Amman",
            "geo":{
                "level":"country",
                "pairs":"31 36",
                "type":"point"
            }
        },
        "partner_id":174,
        "posted_date":"2012-02-12T15:50:02Z",
        "planned_expiration_date":"2012-03-13T15:50:02Z",
        "loan_amount":725,
        "borrower_count":1
    },
    {
        "id":391187,
        "name":"Maryam",
        "description":{
            "languages":["en"]
        },
        "status":"fundraising",
        "funded_amount":0,
        "basket_amount":0,
        "image":{
            "id":1004154,
            "template_id":1
        },
        "activity":"Tailoring",
        "sector":"Services",
        "use":"to purchase a new sewing machine. ",
        "location":{
            "country_code":"JO",
            "country":"Jordan",
            "town":"Al Aqaba",
            "geo":{
                "level":"country",
                "pairs":"31 36",
                "type":"point"
            }
        },
        "partner_id":174,
        "posted_date":"2012-02-12T15:50:02Z",
        "planned_expiration_date":"2012-03-13T15:50:02Z",
        "loan_amount":725,
        "borrower_count":1
    },
    {
        "id":391189,
        "name":"Amal",
        "description":{
            "languages":["en"]
        },
        "status":"fundraising",
        "funded_amount":0,
        "basket_amount":0,
        "image":{
            "id":1004157,
            "template_id":1
        },
        "activity":"Education provider",
        "sector":"Education",
        "use":"to finalize the building of an additional room at her house to teach English in.",
        "location":{
            "country_code":"JO",
            "country":"Jordan",
            "town":"Al Aqaba",
            "geo":{
                "level":"country",
                "pairs":"31 36",
                "type":"point"
            }
        },
        "partner_id":174,
        "posted_date":"2012-02-12T15:50:02Z",
        "planned_expiration_date":"2012-03-13T15:50:02Z",
        "loan_amount":1425,
        "borrower_count":1
    },
    {
        "id":391205,
        "name":"Mutunga",
        "description":{
            "languages":["en"]
        },
        "status":"fundraising",
        "funded_amount":0,
        "basket_amount":0,
        "image":{
            "id":1004187,
            "template_id":1
        },
        "activity":"Internet Cafe",
        "sector":"Services",
        "use":"to purchase more computers for his cyber cafe.",
        "location":{
            "country_code":"KE",
            "country":"Kenya",
            "town":"Mombasa",
            "geo":{
                "level":"town",
                "pairs":"-4.05 39.666667",
                "type":"point"
            }
        },
        "partner_id":203,
        "posted_date":"2012-02-12T15:00:02Z",
        "planned_expiration_date":"2012-03-13T15:00:02Z",
        "loan_amount":375,
        "borrower_count":1
    },
    {
        "id":391155,
        "name":"Wafa'a",
        "description":{
            "languages":["en"]
        },
        "status":"fundraising",
        "funded_amount":0,
        "basket_amount":0,
        "image":{
            "id":1004077,
            "template_id":1
        },
        "activity":"Clothing Sales",
        "sector":"Clothing",
        "use":"to purchase clothes for resale",
        "location":{
            "country_code":"JO",
            "country":"Jordan",
            "town":"Al Aqaba",
            "geo":{
                "level":"country",
                "pairs":"31 36",
                "type":"point"
            }
        },
        "partner_id":174,
        "posted_date":"2012-02-12T14:50:04Z",
        "planned_expiration_date":"2012-03-13T14:50:04Z",
        "loan_amount":575,
        "borrower_count":1
    },
    {
        "id":391150,
        "name":"Micheal",
        "description":{
            "languages":["en"]
        },
        "status":"fundraising",
        "funded_amount":25,
        "basket_amount":0,
        "image":{
            "id":1003570,
            "template_id":1
        },
        "activity":"Food Market",
        "sector":"Food",
        "use":"to buy maize and beans for resale.",
        "location":{
            "country_code":"UG",
            "country":"Uganda",
            "town":"Hoima",
            "geo":{
                "level":"country",
                "pairs":"2 33",
                "type":"point"
            }
        },
        "partner_id":163,
        "posted_date":"2012-02-12T14:40:04Z",
        "planned_expiration_date":"2012-03-13T14:40:04Z",
        "loan_amount":425,
        "borrower_count":1
    },
    {
        "id":391152,
        "name":"Bernard Nthenge",
        "description":{
            "languages":["en"]
        },
        "status":"fundraising",
        "funded_amount":0,
        "basket_amount":0,
        "image":{
            "id":1004032,
            "template_id":1
        },
        "activity":"General Store",
        "sector":"Retail",
        "use":"to buy more home products for resale",
        "location":{
            "country_code":"KE",
            "country":"Kenya",
            "town":"Kitengela",
            "geo":{
                "level":"country",
                "pairs":"1 38",
                "type":"point"
            }
        },
        "partner_id":138,
        "posted_date":"2012-02-12T14:40:04Z",
        "planned_expiration_date":"2012-03-13T14:40:04Z",
        "loan_amount":500,
        "borrower_count":1
    },
    {
        "id":391202,
        "name":"Rukia",
        "description":{
            "languages":["en"]
        },
        "status":"fundraising",
        "funded_amount":50,
        "basket_amount":50,
        "image":{
            "id":1004183,
            "template_id":1
        },
        "activity":"Poultry",
        "sector":"Agriculture",
        "use":"To purchase more feeding troughs and stock.",
        "location":{
            "country_code":"KE",
            "country":"Kenya",
            "town":"Mombasa",
            "geo":{
                "level":"town",
                "pairs":"-4.05 39.666667",
                "type":"point"
            }
        },
        "partner_id":203,
        "posted_date":"2012-02-12T14:40:04Z",
        "planned_expiration_date":"2012-03-13T14:40:04Z",
        "loan_amount":375,
        "borrower_count":1
    },
    {
        "id":391203,
        "name":"Mwanakombo",
        "description":{
            "languages":["en"]
        },
        "status":"fundraising",
        "funded_amount":0,
        "basket_amount":0,
        "image":{
            "id":1004185,
            "template_id":1
        },
        "activity":"Food",
        "sector":"Food",
        "use":"To purchase sacks of beans, flour and oil for the business.",
        "location":{
            "country_code":"KE",
            "country":"Kenya",
            "town":"Mombasa",
            "geo":{
                "level":"town",
                "pairs":"-4.05 39.666667",
                "type":"point"
            }
        },
        "partner_id":203,
        "posted_date":"2012-02-12T14:40:04Z",
        "planned_expiration_date":"2012-03-13T14:40:04Z",
        "loan_amount":250,
        "borrower_count":1
    },
    {
        "id":391204,
        "name":"Teresia",
        "description":{
            "languages":["en"]
        },
        "status":"fundraising",
        "funded_amount":25,
        "basket_amount":0,
        "image":{
            "id":1004186,
            "template_id":1
        },
        "activity":"Manufacturing",
        "sector":"Manufacturing",
        "use":"To purchase more soap making materials such as ungerol, salt and caustic soda. ",
        "location":{
            "country_code":"KE",
            "country":"Kenya",
            "town":"Mombasa",
            "geo":{
                "level":"town",
                "pairs":"-4.05 39.666667",
                "type":"point"
            }
        },
        "partner_id":203,
        "posted_date":"2012-02-12T14:40:04Z",
        "planned_expiration_date":"2012-03-13T14:40:04Z",
        "loan_amount":250,
        "borrower_count":1
    },
    {
        "id":391149,
        "name":"Tainage",
        "description":{
            "languages":["en"]
        },
        "status":"fundraising",
        "funded_amount":0,
        "basket_amount":0,
        "image":{
            "id":1003547,
            "template_id":1
        },
        "activity":"Agriculture",
        "sector":"Agriculture",
        "use":"to pay for labor and buy farm inputs.",
        "location":{
            "country_code":"UG",
            "country":"Uganda",
            "town":"Hoima",
            "geo":{
                "level":"country",
                "pairs":"2 33",
                "type":"point"
            }
        },
        "partner_id":163,
        "posted_date":"2012-02-12T14:40:02Z",
        "planned_expiration_date":"2012-03-13T14:40:02Z",
        "loan_amount":675,
        "borrower_count":1
    },
    {
        "id":391146,
        "name":"Chrisestom",
        "description":{
            "languages":["en"]
        },
        "status":"fundraising",
        "funded_amount":0,
        "basket_amount":0,
        "image":{
            "id":998697,
            "template_id":1
        },
        "activity":"Poultry",
        "sector":"Agriculture",
        "use":"to buy chicks for rearing.",
        "location":{
            "country_code":"UG",
            "country":"Uganda",
            "town":"Kagadi",
            "geo":{
                "level":"country",
                "pairs":"2 33",
                "type":"point"
            }
        },
        "partner_id":163,
        "posted_date":"2012-02-12T14:30:04Z",
        "planned_expiration_date":"2012-03-13T14:30:04Z",
        "loan_amount":350,
        "borrower_count":1
    },
    {
        "id":391147,
        "name":"Sirasi",
        "description":{
            "languages":["en"]
        },
        "status":"fundraising",
        "funded_amount":0,
        "basket_amount":0,
        "image":{
            "id":1003534,
            "template_id":1
        },
        "activity":"Food",
        "sector":"Food",
        "use":"to buy maize to make popcorn.",
        "location":{
            "country_code":"UG",
            "country":"Uganda",
            "town":"Hoima",
            "geo":{
                "level":"country",
                "pairs":"2 33",
                "type":"point"
            }
        },
        "partner_id":163,
        "posted_date":"2012-02-12T14:30:04Z",
        "planned_expiration_date":"2012-03-13T14:30:04Z",
        "loan_amount":675,
        "borrower_count":1
    },
    {
        "id":391148,
        "name":"Florence",
        "description":{
            "languages":["en"]
        },
        "status":"fundraising",
        "funded_amount":25,
        "basket_amount":0,
        "image":{
            "id":1003540,
            "template_id":1
        },
        "activity":"Agriculture",
        "sector":"Agriculture",
        "use":"to buy seeds for planting.",
        "location":{
            "country_code":"UG",
            "country":"Uganda",
            "town":"Hoima",
            "geo":{
                "level":"country",
                "pairs":"2 33",
                "type":"point"
            }
        },
        "partner_id":163,
        "posted_date":"2012-02-12T14:30:04Z",
        "planned_expiration_date":"2012-03-13T14:30:04Z",
        "loan_amount":350,
        "borrower_count":1
    },
    {
        "id":391145,
        "name":"Pamela Adhiambo",
        "description":{
            "languages":["en"]
        },
        "status":"fundraising",
        "funded_amount":0,
        "basket_amount":0,
        "image":{
            "id":1004027,
            "template_id":1
        },
        "activity":"Restaurant",
        "sector":"Food",
        "use":"to purchase bales of wheat flour and maize flour, sugar and rice for cooking food to sell",
        "location":{
            "country_code":"KE",
            "country":"Kenya",
            "town":"Kisumu",
            "geo":{
                "level":"town",
                "pairs":"-0.1 34.75",
                "type":"point"
            }
        },
        "partner_id":138,
        "posted_date":"2012-02-12T14:30:03Z",
        "planned_expiration_date":"2012-03-13T14:30:03Z",
        "loan_amount":250,
        "borrower_count":1
    },
    {
        "id":391142,
        "name":"Friday",
        "description":{
            "languages":["en"]
        },
        "status":"fundraising",
        "funded_amount":0,
        "basket_amount":0,
        "image":{
            "id":1003511,
            "template_id":1
        },
        "activity":"General Store",
        "sector":"Retail",
        "use":"to buy juices and sugar to sell",
        "location":{
            "country_code":"UG",
            "country":"Uganda",
            "town":"Hoima",
            "geo":{
                "level":"country",
                "pairs":"2 33",
                "type":"point"
            }
        },
        "partner_id":163,
        "posted_date":"2012-02-12T14:20:03Z",
        "planned_expiration_date":"2012-03-13T14:20:03Z",
        "loan_amount":1100,
        "borrower_count":1
    },
    {
        "id":391143,
        "name":"Andrew",
        "description":{
            "languages":["en"]
        },
        "status":"fundraising",
        "funded_amount":50,
        "basket_amount":0,
        "image":{
            "id":1003520,
            "template_id":1
        },
        "activity":"Agriculture",
        "sector":"Agriculture",
        "use":" to buy maize and groundnuts for planting.",
        "location":{
            "country_code":"UG",
            "country":"Uganda",
            "town":"Hoima",
            "geo":{
                "level":"country",
                "pairs":"2 33",
                "type":"point"
            }
        },
        "partner_id":163,
        "posted_date":"2012-02-12T14:20:03Z",
        "planned_expiration_date":"2012-03-13T14:20:03Z",
        "loan_amount":875,
        "borrower_count":1
    }
]}